﻿id,name,Hp,Damege,IllustName
1,늑대인간,100,10,WereWolf
2,거미여왕,300,20,QueenOfSpider
3,어쌔신남,500,30,AssassinMan
4,어쌔신여,300,30,AssassinWoman
5,가고일,800,50,GargoyleHead
6,블루우마루,500,30,MonsterFish
7,레드우마루,1000,70,MonsterLava
8,그린우마루,1200,50,MonsterZombie
